{
	"info": {
		"_postman_id": "8890c118-0df3-4ec0-b903-3b10165e3e96",
		"name": "Disclaimers",
		"schema": "https://schema.getpostman.com/json/collection/v2.1.0/collection.json",
		"_exporter_id": "11257700",
		"_collection_link": "https://grey-astronaut-781634.postman.co/workspace/Sentinel~398b9189-5141-4168-acfc-cf8a49ed4784/collection/11257700-8890c118-0df3-4ec0-b903-3b10165e3e96?action=share&creator=11257700&source=collection_link"
	},
	"item": [
		{
			"name": "Get Desclaimers",
			"request": {
				"method": "GET",
				"header": [],
				"url": {
					"raw": "http://localhost:8080/disclaimers",
					"protocol": "http",
					"host": [
						"localhost"
					],
					"port": "8080",
					"path": [
						"disclaimers"
					]
				}
			},
			"response": []
		},
		{
			"name": "Post Declaimers",
			"request": {
				"method": "POST",
				"header": [],
				"body": {
					"mode": "raw",
					"raw": "{\r\n    \"name\":\"Disclaimers lev P1\",\r\n    \"text\":\"disclaimars Prueba 1\",\r\n    \"version\": \"2.0.5\"\r\n}",
					"options": {
						"raw": {
							"language": "json"
						}
					}
				},
				"url": {
					"raw": "http://localhost:8080/disclaimers/648d2609a165ed22232d76b8",
					"protocol": "http",
					"host": [
						"localhost"
					],
					"port": "8080",
					"path": [
						"disclaimers",
						"648d2609a165ed22232d76b8"
					],
					"query": [
						{
							"key": "text",
							"value": "2",
							"disabled": true
						},
						{
							"key": "",
							"value": "",
							"disabled": true
						}
					]
				}
			},
			"response": []
		},
		{
			"name": "Get Desclaimers ID",
			"request": {
				"method": "GET",
				"header": [],
				"url": {
					"raw": "http://localhost:8080/disclaimers/{id}",
					"protocol": "http",
					"host": [
						"localhost"
					],
					"port": "8080",
					"path": [
						"disclaimers",
						"{id}"
					]
				}
			},
			"response": []
		},
		{
			"name": "Put Declaimers",
			"request": {
				"method": "PUT",
				"header": [],
				"body": {
					"mode": "raw",
					"raw": "{\r\n    \"name\":\"prueba disclaimers Actualizacion\",\r\n    \"text\":\"disclaimars Updated\",\r\n    \"version\": \"4.0\"\r\n}",
					"options": {
						"raw": {
							"language": "json"
						}
					}
				},
				"url": {
					"raw": "http://localhost:8080/disclaimers/648d27dc7426c06df9f08c7f",
					"protocol": "http",
					"host": [
						"localhost"
					],
					"port": "8080",
					"path": [
						"disclaimers",
						"648d27dc7426c06df9f08c7f"
					],
					"query": [
						{
							"key": "",
							"value": null,
							"disabled": true
						}
					]
				}
			},
			"response": []
		},
		{
			"name": "Get Desclaimers parameter text",
			"request": {
				"method": "GET",
				"header": [],
				"url": {
					"raw": "http://localhost:8080/disclaimers?text=prueba",
					"protocol": "http",
					"host": [
						"localhost"
					],
					"port": "8080",
					"path": [
						"disclaimers"
					],
					"query": [
						{
							"key": "text",
							"value": "prueba"
						}
					]
				}
			},
			"response": []
		},
		{
			"name": "Post Acceptences",
			"request": {
				"method": "POST",
				"header": [],
				"body": {
					"mode": "raw",
					"raw": "{\r\n    \"disclaimer_id\":\"648de903b2325c59459d63e3\",\r\n    \"userId\": 1\r\n}",
					"options": {
						"raw": {
							"language": "json"
						}
					}
				},
				"url": {
					"raw": "http://localhost:8080/acceptances",
					"protocol": "http",
					"host": [
						"localhost"
					],
					"port": "8080",
					"path": [
						"acceptances"
					]
				}
			},
			"response": []
		},
		{
			"name": "Get Acceptances",
			"request": {
				"method": "GET",
				"header": [],
				"url": {
					"raw": "http://localhost:8080/acceptances",
					"protocol": "http",
					"host": [
						"localhost"
					],
					"port": "8080",
					"path": [
						"acceptances"
					]
				}
			},
			"response": []
		},
		{
			"name": "Get Acceptances parameter userId",
			"request": {
				"method": "GET",
				"header": [],
				"url": {
					"raw": "http://localhost:8080/acceptances?userId=1",
					"protocol": "http",
					"host": [
						"localhost"
					],
					"port": "8080",
					"path": [
						"acceptances"
					],
					"query": [
						{
							"key": "userId",
							"value": "1"
						}
					]
				}
			},
			"response": []
		}
	]
}